…
Let's examine the data and metadata files a bit before we begin our analyses.

#### Counts data


~~~
# Calling a tibble object will print the first ten rows in a nice tidy output; doing the same for a base R dataframe will print the whole thing until it runs out of memory. If you want to inspect a large dataframe, use `head(df)`
counts
~~~
{: .language-r}



~~~
# A tibble: 55,489 × 73
   gene_id `32043rh` `32044rh` `32046rh` `32047rh` `32048rh` `32049rh` `32050rh`
   <chr>       <dbl>     <dbl>     <dbl>     <dbl>     <dbl>     <dbl>     <dbl>
 1 ENSG00…     22554         0         0         0     16700         0         0
 2 ENSG00…    344489         4         0         1    260935         6         8
 3 ENSMUS…      5061      3483      3941      3088      2756      3067      2711
 4 ENSMUS…         0         0         0         0         0         0         0
 5 ENSMUS…       208       162       138       127        95       154       165
 6 ENSMUS…        44        17        14        28        23        24        14
 7 ENSMUS…       143        88       121       117       115       109        75
 8 ENSMUS…        22         6        10        11        11        19        24
 9 ENSMUS…      7165      5013      5581      4011      4104      5254      4345
10 ENSMUS…      3728      2316      2238      1965      1822      1999      1809
# ℹ 55,479 more rows
# ℹ 65 more variables: `32052rh` <dbl>, `32053rh` <dbl>, `32057rh` <dbl>,
#   `32059rh` <dbl>, `32061rh` <dbl>, `32062rh` <dbl>, `32065rh` <dbl>,
#   `32067rh` <dbl>, `32068rh` <dbl>, `32070rh` <dbl>, `32073rh` <dbl>,
#   `32074rh` <dbl>, `32075rh` <dbl>, `32078rh` <dbl>, `32081rh` <dbl>,
#   `32088rh` <dbl>, `32640rh` <dbl>, `46105rh` <dbl>, `46106rh` <dbl>,
#   `46107rh` <dbl>, `46108rh` <dbl>, `46109rh` <dbl>, `46110rh` <dbl>, …
…
The data file has a column of ENSEMBL gene ids and then a bunch of columns with count data, where the column headers correspond to the specimenIDs. These specimenIDs should all be in the RNAseq assay metadata file, so let's check.


~~~
# what does the RNAseq assay metadata look like?
rna_meta
~~~
{: .language-r}



~~~
# A tibble: 72 × 12
   specimenID platform   RIN   rnaBatch libraryBatch sequencingBatch libraryPrep
   <chr>      <chr>      <lgl>    <dbl>        <dbl>           <dbl> <chr>      
 1 32043rh    IlluminaN… NA           1            1               1 polyAselec…
 2 32044rh    IlluminaN… NA           1            1               1 polyAselec…
 3 32046rh    IlluminaN… NA           1            1               1 polyAselec…
 4 32047rh    IlluminaN… NA           1            1               1 polyAselec…
 5 32049rh    IlluminaN… NA           1            1               1 polyAselec…
 6 32057rh    IlluminaN… NA           1            1               1 polyAselec…
 7 32061rh    IlluminaN… NA           1            1               1 polyAselec…
 8 32065rh    IlluminaN… NA           1            1               1 polyAselec…
 9 32067rh    IlluminaN… NA           1            1               1 polyAselec…
10 32070rh    IlluminaN… NA           1            1               1 polyAselec…
# ℹ 62 more rows
# ℹ 5 more variables: libraryPreparationMethod <lgl>, isStranded <lgl>,
#   readStrandOrigin <lgl>, runType <chr>, readLength <dbl>
…
~~~
# join all the rows in the assay metadata that have a match in the biospecimen metadata
joined_meta <- rna_meta %>% #start with the rnaseq assay metadata
  left_join(bio_meta, by = "specimenID") %>%  #join rows from biospecimen that match specimenID 
  left_join(ind_meta, by = "individualID") # join rows from individual that match individualID

joined_meta
~~~
{: .language-r}



~~~
# A tibble: 144 × 50
   specimenID platform   RIN   rnaBatch libraryBatch sequencingBatch libraryPrep
   <chr>      <chr>      <lgl>    <dbl>        <dbl>           <dbl> <chr>      
 1 32043rh    IlluminaN… NA           1            1               1 polyAselec…
 2 32043rh    IlluminaN… NA           1            1               1 polyAselec…
 3 32044rh    IlluminaN… NA           1            1               1 polyAselec…
 4 32044rh    IlluminaN… NA           1            1               1 polyAselec…
 5 32046rh    IlluminaN… NA           1            1               1 polyAselec…
 6 32046rh    IlluminaN… NA           1            1               1 polyAselec…
 7 32047rh    IlluminaN… NA           1            1               1 polyAselec…
 8 32047rh    IlluminaN… NA           1            1               1 polyAselec…
 9 32049rh    IlluminaN… NA           1            1               1 polyAselec…
10 32049rh    IlluminaN… NA           1            1               1 polyAselec…
# ℹ 134 more rows
# ℹ 43 more variables: libraryPreparationMethod <lgl>, isStranded <lgl>,
#   readStrandOrigin <lgl>, runType <chr>, readLength <dbl>,
#   individualID <dbl>, specimenIdSource <chr>, organ <chr>, tissue <chr>,
#   BrodmannArea <lgl>, sampleStatus <chr>, tissueWeight <lgl>,
#   tissueVolume <lgl>, nucleicAcidSource <lgl>, cellType <lgl>,
#   fastingState <lgl>, isPostMortem <lgl>, samplingAge <lgl>, ...1 <dbl>, …
…
As we saw previously, this downloads a csv file with the results of our AD Portal query. Opening that file lets us see which specimens are associated with which files:


~~~
#
annotations_table <- read_csv(query$filepath, show_col_types = FALSE)

annotations_table
~~~
{: .language-r}



~~~
# A tibble: 148 × 45
     ROW_ID ROW_VERSION ROW_ETAG   id    name  study dataType assay organ tissue
      <dbl>       <dbl> <chr>      <chr> <chr> <chr> <chr>    <chr> <chr> <chr> 
 1 22108503           1 458ff182-… syn2… 3204… "[\"… "[\"gen… "[\"… brain "[\"r…
 2 22108508           1 163d5067-… syn2… 3204… "[\"… "[\"gen… "[\"… brain "[\"r…
 3 22108512           1 d02e16c5-… syn2… 3204… "[\"… "[\"gen… "[\"… brain "[\"r…
 4 22108519           1 59eba082-… syn2… 3204… "[\"… "[\"gen… "[\"… brain "[\"r…
 5 22108525           1 9fed0677-… syn2… 3204… "[\"… "[\"gen… "[\"… brain "[\"r…
 6 22108530           1 47cff701-… syn2… 3205… "[\"… "[\"gen… "[\"… brain "[\"r…
 7 22108534           1 03af7c0a-… syn2… 3206… "[\"… "[\"gen… "[\"… brain "[\"r…
 8 22108539           1 502d1468-… syn2… 3206… "[\"… "[\"gen… "[\"… brain "[\"r…
 9 22108543           1 47b8ffe9-… syn2… 3206… "[\"… "[\"gen… "[\"… brain "[\"r…
10 22108550           1 471ec9a1-… syn2… 3207… "[\"… "[\"gen… "[\"… brain "[\"r…
# ℹ 138 more rows
# ℹ 35 more variables: species <chr>, sex <chr>, consortium <chr>, grant <chr>,
#   modelSystemName <chr>, treatmentType <lgl>, specimenID <chr>,
#   individualID <dbl>, individualIdSource <chr>, specimenIdSource <lgl>,
#   resourceType <chr>, dataSubtype <chr>, metadataType <chr>,
#   assayTarget <lgl>, analysisType <lgl>, cellType <lgl>,
#   nucleicAcidSource <chr>, fileFormat <chr>, group <lgl>, …
…
~~~
Warning: The `x` argument of `as_tibble.matrix()` must have unique column names if `.name_repair` is
omitted as of tibble 2.0.0.
ℹ Using compatibility `.name_repair`.
This warning is displayed once every 8 hours.
Call `lifecycle::last_lifecycle_warnings()` to see where this warning was generated.
~~~
{: .warning}



~~~
# A tibble: 145 × 55
   specimenID V1    V2    V3    V4    V5    platform RIN   rnaBatch libraryBatch
   <chr>      <chr> <chr> <chr> <chr> <chr> <chr>    <lgl>    <dbl>        <dbl>
 1 gene_id    "ENS… "ENS… "ENS… "ENS… "ENS… <NA>     NA          NA           NA
 2 32043rh    " 22… "344… "  5… "   … "   … Illumin… NA           1            1
 3 32043rh    " 22… "344… "  5… "   … "   … Illumin… NA           1            1
 4 32044rh    "   … "   … "348… "   … " 16… Illumin… NA           1            1
 5 32044rh    "   … "   … "348… "   … " 16… Illumin… NA           1            1
 6 32046rh    "   … "   … "394… "   … " 13… Illumin… NA           1            1
 7 32046rh    "   … "   … "394… "   … " 13… Illumin… NA           1            1
 8 32047rh    "   … "   … "308… "   … " 12… Illumin… NA           1            1
 9 32047rh    "   … "   … "308… "   … " 12… Illumin… NA           1            1
10 32048rh    " 16… "260… "  2… "   … "   … Illumin… NA           1            1
# ℹ 135 more rows
# ℹ 45 more variables: sequencingBatch <dbl>, libraryPrep <chr>,
#   libraryPreparationMethod <lgl>, isStranded <lgl>, readStrandOrigin <lgl>,
#   runType <chr>, readLength <dbl>, individualID <dbl>,
#   specimenIdSource <chr>, organ <chr>, tissue <chr>, BrodmannArea <lgl>,
#   sampleStatus <chr>, tissueWeight <lgl>, tissueVolume <lgl>,
#   nucleicAcidSource <lgl>, cellType <lgl>, fastingState <lgl>, …
…
