…
How many samples are in each genotype for each sex and age group? 

~~~
ind_meta %>% group_by(Sex,Genotype,Age) %>% count()
~~~
{: .language-r}



~~~
# A tibble: 51 × 4
# Groups:   Sex, Genotype, Age [51]
   Sex   Genotype     Age     n
   <chr> <chr>      <int> <int>
 1 F     5XFAD          4     6
 2 F     5XFAD          6     6
 3 F     5XFAD         12     6
 4 F     APOE4          4    12
 5 F     APOE4          8     6
 6 F     APOE4         12     5
 7 F     APOE4         24     6
 8 F     APOE4Trem2     4    12
 9 F     APOE4Trem2     8     6
10 F     APOE4Trem2    12     5
# ℹ 41 more rows
…
