…
Let's check first row:

~~~
head(df[1,]$data)
~~~
{: .language-r}



~~~
[[1]]
# A tibble: 1,462 × 3
   symbol  log2FoldChange ampad_fc
   <chr>            <dbl>    <dbl>
 1 Gnai3         -0.0231    0.180 
 2 Gna12         -0.00445   0.444 
 3 Sdhd          -0.00152   0.0631
 4 Lhx2          -0.0959    0.252 
 5 Gmpr           0.0105    0.801 
 6 Tpd52l1       -0.103     0.714 
 7 Cdh4          -0.0111    0.109 
 8 Dbt           -0.0460   -0.0103
 9 Tbrg4          0.00746  -0.129 
10 Galnt1        -0.0105    0.191 
# ℹ 1,452 more rows
…
